DS4B 101
…
## Rows: 30
## Columns: 3
## $ bikeshop.id   <dbl> 1, 2, 3, 4, 5, 6, 7, 8, 9, 10, 11, 12, 13, 14, 15, 16, 1~
## $ bikeshop.name <chr> "Pittsburgh Mountain Machines", "Ithaca Mountain Climber~
## $ location      <chr> "Pittsburgh, PA", "Ithaca, NY", "Columbus, OH", "Detroit~

2 Manipulating the Data

2.1 Selecting via select()

# Basic select
bike_orderlines_tbl %>%
    select(order_date, order_id, order_line)

## # A tibble: 15,644 x 3
##    order_date          order_id order_line
##    <dttm>                 <dbl>      <dbl>
##  1 2011-01-07 00:00:00        1          1
##  2 2011-01-07 00:00:00        1          2
##  3 2011-01-10 00:00:00        2          1
##  4 2011-01-10 00:00:00        2          2
##  5 2011-01-10 00:00:00        3          1
##  6 2011-01-10 00:00:00        3          2
##  7 2011-01-10 00:00:00        3          3
##  8 2011-01-10 00:00:00        3          4
##  9 2011-01-10 00:00:00        3          5
## 10 2011-01-11 00:00:00        4          1
## # ... with 15,634 more rows

bike_orderlines_tbl %>%
    select(1:3)

## # A tibble: 15,644 x 3
##    order_date          order_id order_line
##    <dttm>                 <dbl>      <dbl>
##  1 2011-01-07 00:00:00        1          1
##  2 2011-01-07 00:00:00        1          2
##  3 2011-01-10 00:00:00        2          1
##  4 2011-01-10 00:00:00        2          2
##  5 2011-01-10 00:00:00        3          1
##  6 2011-01-10 00:00:00        3          2
##  7 2011-01-10 00:00:00        3          3
##  8 2011-01-10 00:00:00        3          4
##  9 2011-01-10 00:00:00        3          5
## 10 2011-01-11 00:00:00        4          1
## # ... with 15,634 more rows

bike_orderlines_tbl %>%
    select(starts_with("order_"))

## # A tibble: 15,644 x 3
##    order_date          order_id order_line
##    <dttm>                 <dbl>      <dbl>
##  1 2011-01-07 00:00:00        1          1
##  2 2011-01-07 00:00:00        1          2
##  3 2011-01-10 00:00:00        2          1
##  4 2011-01-10 00:00:00        2          2
##  5 2011-01-10 00:00:00        3          1
##  6 2011-01-10 00:00:00        3          2
##  7 2011-01-10 00:00:00        3          3
##  8 2011-01-10 00:00:00        3          4
##  9 2011-01-10 00:00:00        3          5
## 10 2011-01-11 00:00:00        4          1
## # ... with 15,634 more rows

# Reduce columns

bike_orderlines_tbl %>%
    select(order_date, total_price, category_1, category_2)

## # A tibble: 15,644 x 4
##    order_date          total_price category_1 category_2    
##    <dttm>                    <dbl> <chr>      <chr>         
##  1 2011-01-07 00:00:00        6070 Mountain   Over Mountain 
##  2 2011-01-07 00:00:00        5970 Mountain   Over Mountain 
##  3 2011-01-10 00:00:00        2770 Mountain   Trail         
##  4 2011-01-10 00:00:00        5970 Mountain   Over Mountain 
##  5 2011-01-10 00:00:00       10660 Road       Elite Road    
##  6 2011-01-10 00:00:00        3200 Mountain   Over Mountain 
##  7 2011-01-10 00:00:00       12790 Road       Elite Road    
##  8 2011-01-10 00:00:00        5330 Road       Elite Road    
##  9 2011-01-10 00:00:00        1570 Road       Endurance Road
## 10 2011-01-11 00:00:00        4800 Road       Endurance Road
## # ... with 15,634 more rows

bike_orderlines_tbl %>% 
    select(-state)

## # A tibble: 15,644 x 12
##    order_date          order_id order_line quantity price total_price model     
##    <dttm>                 <dbl>      <dbl>    <dbl> <dbl>       <dbl> <chr>     
##  1 2011-01-07 00:00:00        1          1        1  6070        6070 Jekyll Ca~
##  2 2011-01-07 00:00:00        1          2        1  5970        5970 Trigger C~
##  3 2011-01-10 00:00:00        2          1        1  2770        2770 Beast of ~
##  4 2011-01-10 00:00:00        2          2        1  5970        5970 Trigger C~
##  5 2011-01-10 00:00:00        3          1        1 10660       10660 Supersix ~
##  6 2011-01-10 00:00:00        3          2        1  3200        3200 Jekyll Ca~
##  7 2011-01-10 00:00:00        3          3        1 12790       12790 Supersix ~
##  8 2011-01-10 00:00:00        3          4        1  5330        5330 Supersix ~
##  9 2011-01-10 00:00:00        3          5        1  1570        1570 Synapse D~
## 10 2011-01-11 00:00:00        4          1        1  4800        4800 Synapse C~
## # ... with 15,634 more rows, and 5 more variables: category_1 <chr>,
## #   category_2 <chr>, frame_material <chr>, bikeshop_name <chr>, city <chr>

# Rearange columns

bike_orderlines_tbl %>%
    select(bikeshop_name:state, everything())

## # A tibble: 15,644 x 13
##    bikeshop_name   city   state order_date          order_id order_line quantity
##    <chr>           <chr>  <chr> <dttm>                 <dbl>      <dbl>    <dbl>
##  1 Ithaca Mountai~ Ithaca NY    2011-01-07 00:00:00        1          1        1
##  2 Ithaca Mountai~ Ithaca NY    2011-01-07 00:00:00        1          2        1
##  3 Kansas City 29~ Kansa~ KS    2011-01-10 00:00:00        2          1        1
##  4 Kansas City 29~ Kansa~ KS    2011-01-10 00:00:00        2          2        1
##  5 Louisville Rac~ Louis~ KY    2011-01-10 00:00:00        3          1        1
##  6 Louisville Rac~ Louis~ KY    2011-01-10 00:00:00        3          2        1
##  7 Louisville Rac~ Louis~ KY    2011-01-10 00:00:00        3          3        1
##  8 Louisville Rac~ Louis~ KY    2011-01-10 00:00:00        3          4        1
##  9 Louisville Rac~ Louis~ KY    2011-01-10 00:00:00        3          5        1
## 10 Ann Arbor Speed Ann A~ MI    2011-01-11 00:00:00        4          1        1
## # ... with 15,634 more rows, and 6 more variables: price <dbl>,
## #   total_price <dbl>, model <chr>, category_1 <chr>, category_2 <chr>,
## #   frame_material <chr>
…
## [1] 4540.548

#bike_orderlines_tbl %>% 
#    pull(model)

# select_if

#?select_if

bike_orderlines_tbl %>%
    select_if(is.character) 

## # A tibble: 15,644 x 7
##    model      category_1 category_2  frame_material bikeshop_name   city   state
##    <chr>      <chr>      <chr>       <chr>          <chr>           <chr>  <chr>
##  1 Jekyll Ca~ Mountain   Over Mount~ Carbon         Ithaca Mountai~ Ithaca NY   
##  2 Trigger C~ Mountain   Over Mount~ Carbon         Ithaca Mountai~ Ithaca NY   
##  3 Beast of ~ Mountain   Trail       Aluminum       Kansas City 29~ Kansa~ KS   
##  4 Trigger C~ Mountain   Over Mount~ Carbon         Kansas City 29~ Kansa~ KS   
##  5 Supersix ~ Road       Elite Road  Carbon         Louisville Rac~ Louis~ KY   
##  6 Jekyll Ca~ Mountain   Over Mount~ Carbon         Louisville Rac~ Louis~ KY   
##  7 Supersix ~ Road       Elite Road  Carbon         Louisville Rac~ Louis~ KY   
##  8 Supersix ~ Road       Elite Road  Carbon         Louisville Rac~ Louis~ KY   
##  9 Synapse D~ Road       Endurance ~ Aluminum       Louisville Rac~ Louis~ KY   
## 10 Synapse C~ Road       Endurance ~ Carbon         Ann Arbor Speed Ann A~ MI   
## # ... with 15,634 more rows

bike_orderlines_tbl %>%
    select_if(~ is.numeric(.))

## # A tibble: 15,644 x 5
##    order_id order_line quantity price total_price
##       <dbl>      <dbl>    <dbl> <dbl>       <dbl>
##  1        1          1        1  6070        6070
##  2        1          2        1  5970        5970
##  3        2          1        1  2770        2770
##  4        2          2        1  5970        5970
##  5        3          1        1 10660       10660
##  6        3          2        1  3200        3200
##  7        3          3        1 12790       12790
##  8        3          4        1  5330        5330
##  9        3          5        1  1570        1570
## 10        4          1        1  4800        4800
## # ... with 15,634 more rows

bike_orderlines_tbl %>%
    select_if(~ !is.numeric(.))

## # A tibble: 15,644 x 8
##    order_date          model  category_1 category_2 frame_material bikeshop_name
##    <dttm>              <chr>  <chr>      <chr>      <chr>          <chr>        
##  1 2011-01-07 00:00:00 Jekyl~ Mountain   Over Moun~ Carbon         Ithaca Mount~
##  2 2011-01-07 00:00:00 Trigg~ Mountain   Over Moun~ Carbon         Ithaca Mount~
##  3 2011-01-10 00:00:00 Beast~ Mountain   Trail      Aluminum       Kansas City ~
##  4 2011-01-10 00:00:00 Trigg~ Mountain   Over Moun~ Carbon         Kansas City ~
##  5 2011-01-10 00:00:00 Super~ Road       Elite Road Carbon         Louisville R~
##  6 2011-01-10 00:00:00 Jekyl~ Mountain   Over Moun~ Carbon         Louisville R~
##  7 2011-01-10 00:00:00 Super~ Road       Elite Road Carbon         Louisville R~
##  8 2011-01-10 00:00:00 Super~ Road       Elite Road Carbon         Louisville R~
##  9 2011-01-10 00:00:00 Synap~ Road       Endurance~ Aluminum       Louisville R~
## 10 2011-01-11 00:00:00 Synap~ Road       Endurance~ Carbon         Ann Arbor Sp~
## # ... with 15,634 more rows, and 2 more variables: city <chr>, state <chr>
…
bikes_tbl %>%
    select(model, price) %>%
    arrange(desc(price)) %>%
    View()

2.3 Filtering via filter()

2.3.1 Filter via formula

bikes_tbl %>%
    select(model, price) %>%
    filter(price > mean(price))

## # A tibble: 35 x 2
##    model                          price
##    <chr>                          <dbl>
##  1 Supersix Evo Black Inc.        12790
##  2 Supersix Evo Hi-Mod Team       10660
##  3 Supersix Evo Hi-Mod Dura Ace 1  7990
##  4 Supersix Evo Hi-Mod Dura Ace 2  5330
##  5 Supersix Evo Hi-Mod Utegra      4260
##  6 CAAD12 Black Inc                5860
##  7 CAAD12 Disc Dura Ace            4260
##  8 Synapse Hi-Mod Disc Black Inc.  9590
##  9 Synapse Hi-Mod Disc Red         7460
## 10 Synapse Hi-Mod Dura Ace         5860
## # ... with 25 more rows
…
## # A tibble: 3 x 2
##   model                          price
##   <chr>                          <dbl>
## 1 Supersix Evo Black Inc.        12790
## 2 Supersix Evo Hi-Mod Team       10660
## 3 Supersix Evo Hi-Mod Dura Ace 1  7990

# Filtering One or More Conditions Exactly Using == and %in%
bike_orderlines_tbl %>%
    filter(category_2 %in% c("Over Mountain", "Trail", "Endurance Road"))

## # A tibble: 5,775 x 13
##    order_date          order_id order_line quantity price total_price model     
##    <dttm>                 <dbl>      <dbl>    <dbl> <dbl>       <dbl> <chr>     
##  1 2011-01-07 00:00:00        1          1        1  6070        6070 Jekyll Ca~
##  2 2011-01-07 00:00:00        1          2        1  5970        5970 Trigger C~
##  3 2011-01-10 00:00:00        2          1        1  2770        2770 Beast of ~
##  4 2011-01-10 00:00:00        2          2        1  5970        5970 Trigger C~
##  5 2011-01-10 00:00:00        3          2        1  3200        3200 Jekyll Ca~
##  6 2011-01-10 00:00:00        3          5        1  1570        1570 Synapse D~
##  7 2011-01-11 00:00:00        4          1        1  4800        4800 Synapse C~
##  8 2011-01-11 00:00:00        5          3        1  1250        1250 Synapse D~
##  9 2011-01-11 00:00:00        6          3        1  2340        2340 Habit 5   
## 10 2011-01-11 00:00:00        6          4        1  2240        2240 Synapse C~
## # ... with 5,765 more rows, and 6 more variables: category_1 <chr>,
## #   category_2 <chr>, frame_material <chr>, bikeshop_name <chr>, city <chr>,
## #   state <chr>

bike_orderlines_tbl %>%
    filter(category_2 == "Over Mountain")

## # A tibble: 1,169 x 13
##    order_date          order_id order_line quantity price total_price model     
##    <dttm>                 <dbl>      <dbl>    <dbl> <dbl>       <dbl> <chr>     
##  1 2011-01-07 00:00:00        1          1        1  6070        6070 Jekyll Ca~
##  2 2011-01-07 00:00:00        1          2        1  5970        5970 Trigger C~
##  3 2011-01-10 00:00:00        2          2        1  5970        5970 Trigger C~
##  4 2011-01-10 00:00:00        3          2        1  3200        3200 Jekyll Ca~
##  5 2011-01-20 00:00:00       12          2        1  3840        3840 Jekyll Ca~
##  6 2011-01-25 00:00:00       16          8        2  3840        7680 Jekyll Ca~
##  7 2011-01-28 00:00:00       20          3        1  3200        3200 Jekyll Ca~
##  8 2011-02-01 00:00:00       21          1        1  8200        8200 Trigger C~
##  9 2011-02-04 00:00:00       23          1        1  6070        6070 Jekyll Ca~
## 10 2011-02-10 00:00:00       28          1        1  7990        7990 Jekyll Ca~
## # ... with 1,159 more rows, and 6 more variables: category_1 <chr>,
## #   category_2 <chr>, frame_material <chr>, bikeshop_name <chr>, city <chr>,
## #   state <chr>

bike_orderlines_tbl %>%
    filter(category_2 != "Over Mountain")

## # A tibble: 14,475 x 13
##    order_date          order_id order_line quantity price total_price model     
##    <dttm>                 <dbl>      <dbl>    <dbl> <dbl>       <dbl> <chr>     
##  1 2011-01-10 00:00:00        2          1        1  2770        2770 Beast of ~
##  2 2011-01-10 00:00:00        3          1        1 10660       10660 Supersix ~
##  3 2011-01-10 00:00:00        3          3        1 12790       12790 Supersix ~
##  4 2011-01-10 00:00:00        3          4        1  5330        5330 Supersix ~
##  5 2011-01-10 00:00:00        3          5        1  1570        1570 Synapse D~
##  6 2011-01-11 00:00:00        4          1        1  4800        4800 Synapse C~
##  7 2011-01-11 00:00:00        5          1        1   480         480 Catalyst 3
##  8 2011-01-11 00:00:00        5          2        2 11190       22380 F-Si Blac~
##  9 2011-01-11 00:00:00        5          3        1  1250        1250 Synapse D~
## 10 2011-01-11 00:00:00        5          4        1  2060        2060 F-Si 2    
## # ... with 14,465 more rows, and 6 more variables: category_1 <chr>,
## #   category_2 <chr>, frame_material <chr>, bikeshop_name <chr>, city <chr>,
## #   state <chr>

bike_orderlines_tbl %>%
    filter(!(category_2 %in% c("Over Mountain", "Trail", "Endurance Road")))

## # A tibble: 9,869 x 13
##    order_date          order_id order_line quantity price total_price model     
##    <dttm>                 <dbl>      <dbl>    <dbl> <dbl>       <dbl> <chr>     
##  1 2011-01-10 00:00:00        3          1        1 10660       10660 Supersix ~
##  2 2011-01-10 00:00:00        3          3        1 12790       12790 Supersix ~
##  3 2011-01-10 00:00:00        3          4        1  5330        5330 Supersix ~
##  4 2011-01-11 00:00:00        5          1        1   480         480 Catalyst 3
##  5 2011-01-11 00:00:00        5          2        2 11190       22380 F-Si Blac~
##  6 2011-01-11 00:00:00        5          4        1  2060        2060 F-Si 2    
##  7 2011-01-11 00:00:00        6          1        1  1960        1960 SuperX 105
##  8 2011-01-11 00:00:00        6          2        1  4500        4500 Slice Hi-~
##  9 2011-01-12 00:00:00        7          1        1 10660       10660 Supersix ~
## 10 2011-01-12 00:00:00        7          2        1  2240        2240 CAAD12 Ul~
## # ... with 9,859 more rows, and 6 more variables: category_1 <chr>,
## #   category_2 <chr>, frame_material <chr>, bikeshop_name <chr>, city <chr>,
## #   state <chr>
…
bike_orderlines_tbl %>%
    distinct(bikeshop_name, city, state)

## # A tibble: 30 x 3
##    bikeshop_name             city          state
##    <chr>                     <chr>         <chr>
##  1 Ithaca Mountain Climbers  Ithaca        NY   
##  2 Kansas City 29ers         Kansas City   KS   
##  3 Louisville Race Equipment Louisville    KY   
##  4 Ann Arbor Speed           Ann Arbor     MI   
##  5 Denver Bike Shop          Denver        CO   
##  6 Phoenix Bi-peds           Phoenix       AZ   
##  7 Minneapolis Bike Shop     Minneapolis   MN   
##  8 New Orleans Velocipedes   New Orleans   LA   
##  9 Portland Bi-peds          Portland      OR   
## 10 San Francisco Cruisers    San Francisco CA   
## # ... with 20 more rows

2.4 Creating via mutate()

# Adding column
bike_orderlines_prices <- bike_orderlines_tbl %>%
    select(order_date, model, quantity, price) %>%
    mutate(total_price = quantity * price)

bike_orderlines_prices

## # A tibble: 15,644 x 5
##    order_date          model                          quantity price total_price
##    <dttm>              <chr>                             <dbl> <dbl>       <dbl>
##  1 2011-01-07 00:00:00 Jekyll Carbon 2                       1  6070        6070
##  2 2011-01-07 00:00:00 Trigger Carbon 2                      1  5970        5970
##  3 2011-01-10 00:00:00 Beast of the East 1                   1  2770        2770
##  4 2011-01-10 00:00:00 Trigger Carbon 2                      1  5970        5970
##  5 2011-01-10 00:00:00 Supersix Evo Hi-Mod Team              1 10660       10660
##  6 2011-01-10 00:00:00 Jekyll Carbon 4                       1  3200        3200
##  7 2011-01-10 00:00:00 Supersix Evo Black Inc.               1 12790       12790
##  8 2011-01-10 00:00:00 Supersix Evo Hi-Mod Dura Ace 2        1  5330        5330
##  9 2011-01-10 00:00:00 Synapse Disc 105                      1  1570        1570
## 10 2011-01-11 00:00:00 Synapse Carbon Disc Ultegra D~        1  4800        4800
## # ... with 15,634 more rows

# Overwrite Column
bike_orderlines_prices %>%
    mutate(total_price = log(total_price)) 

## # A tibble: 15,644 x 5
##    order_date          model                          quantity price total_price
##    <dttm>              <chr>                             <dbl> <dbl>       <dbl>
##  1 2011-01-07 00:00:00 Jekyll Carbon 2                       1  6070        8.71
##  2 2011-01-07 00:00:00 Trigger Carbon 2                      1  5970        8.69
##  3 2011-01-10 00:00:00 Beast of the East 1                   1  2770        7.93
##  4 2011-01-10 00:00:00 Trigger Carbon 2                      1  5970        8.69
##  5 2011-01-10 00:00:00 Supersix Evo Hi-Mod Team              1 10660        9.27
##  6 2011-01-10 00:00:00 Jekyll Carbon 4                       1  3200        8.07
##  7 2011-01-10 00:00:00 Supersix Evo Black Inc.               1 12790        9.46
##  8 2011-01-10 00:00:00 Supersix Evo Hi-Mod Dura Ace 2        1  5330        8.58
##  9 2011-01-10 00:00:00 Synapse Disc 105                      1  1570        7.36
## 10 2011-01-11 00:00:00 Synapse Carbon Disc Ultegra D~        1  4800        8.48
## # ... with 15,634 more rows

# Transformations
bike_orderlines_prices %>%
    mutate(total_price_log = log(total_price)) %>%
    mutate(total_price_sqrt = total_price^0.5)

## # A tibble: 15,644 x 7
##    order_date          model          quantity price total_price total_price_log
##    <dttm>              <chr>             <dbl> <dbl>       <dbl>           <dbl>
##  1 2011-01-07 00:00:00 Jekyll Carbon~        1  6070        6070            8.71
##  2 2011-01-07 00:00:00 Trigger Carbo~        1  5970        5970            8.69
##  3 2011-01-10 00:00:00 Beast of the ~        1  2770        2770            7.93
##  4 2011-01-10 00:00:00 Trigger Carbo~        1  5970        5970            8.69
##  5 2011-01-10 00:00:00 Supersix Evo ~        1 10660       10660            9.27
##  6 2011-01-10 00:00:00 Jekyll Carbon~        1  3200        3200            8.07
##  7 2011-01-10 00:00:00 Supersix Evo ~        1 12790       12790            9.46
##  8 2011-01-10 00:00:00 Supersix Evo ~        1  5330        5330            8.58
##  9 2011-01-10 00:00:00 Synapse Disc ~        1  1570        1570            7.36
## 10 2011-01-11 00:00:00 Synapse Carbo~        1  4800        4800            8.48
## # ... with 15,634 more rows, and 1 more variable: total_price_sqrt <dbl>
…
